15 15
###############
#             #
#   S         #
#   EEE EE    #
#  EE     EE  #
#  E  DDD  E  #
#  E D   D E  #
#EEE    D  E  #
#  E   D      #
#  E  D    E  #
#  E DDDDD E I#
#  E%      E I#
#  EEEEEEEEE I#
#         IIII#
###############
