^C:\USERS\HARELSHE\DOWNLOADS\PROJECT_EX5\X64\DEBUG\CONTROLLER.OBJ|C:\USERS\HARELSHE\DOWNLOADS\PROJECT_EX5\X64\DEBUG\COOKIE.OBJ|C:\USERS\HARELSHE\DOWNLOADS\PROJECT_EX5\X64\DEBUG\DEVIL.OBJ|C:\USERS\HARELSHE\DOWNLOADS\PROJECT_EX5\X64\DEBUG\DYNAMIC.OBJ|C:\USERS\HARELSHE\DOWNLOADS\PROJECT_EX5\X64\DEBUG\MAIN.OBJ|C:\USERS\HARELSHE\DOWNLOADS\PROJECT_EX5\X64\DEBUG\MENU.OBJ|C:\USERS\HARELSHE\DOWNLOADS\PROJECT_EX5\X64\DEBUG\OBJECT.OBJ|C:\USERS\HARELSHE\DOWNLOADS\PROJECT_EX5\X64\DEBUG\PACMAN.OBJ|C:\USERS\HARELSHE\DOWNLOADS\PROJECT_EX5\X64\DEBUG\PLAYER_STATUS.OBJ|C:\USERS\HARELSHE\DOWNLOADS\PROJECT_EX5\X64\DEBUG\RANDOM_DEVIL.OBJ|C:\USERS\HARELSHE\DOWNLOADS\PROJECT_EX5\X64\DEBUG\RESOURCEMANAGER.OBJ|C:\USERS\HARELSHE\DOWNLOADS\PROJECT_EX5\X64\DEBUG\SCREEN.OBJ|C:\USERS\HARELSHE\DOWNLOADS\PROJECT_EX5\X64\DEBUG\SEARCH_ALGORITHM.OBJ|C:\USERS\HARELSHE\DOWNLOADS\PROJECT_EX5\X64\DEBUG\SMART_DEVIL.OBJ|C:\USERS\HARELSHE\DOWNLOADS\PROJECT_EX5\X64\DEBUG\STAGE_LOADER.OBJ|C:\USERS\HARELSHE\DOWNLOADS\PROJECT_EX5\X64\DEBUG\STATIC.OBJ|C:\USERS\HARELSHE\DOWNLOADS\PROJECT_EX5\X64\DEBUG\WALL.OBJ
C:\USERS\HARELSHE\DOWNLOADS\X64\DEBUG\PROJECT_EX5.EXE
C:\USERS\HARELSHE\DOWNLOADS\X64\DEBUG\PROJECT_EX5.ILK
C:\USERS\HARELSHE\DOWNLOADS\X64\DEBUG\PROJECT_EX5.PDB
